------------------------------------------------------------------------
r880332 | scripty | 2008-11-05 08:12:25 +0000 (Wed, 05 Nov 2008) | 1 line

SVN_SILENT made messages (.desktop file)
------------------------------------------------------------------------
r880678 | scripty | 2008-11-06 07:09:04 +0000 (Thu, 06 Nov 2008) | 1 line

SVN_SILENT made messages (.desktop file)
------------------------------------------------------------------------
r888236 | scripty | 2008-11-24 07:22:53 +0000 (Mon, 24 Nov 2008) | 1 line

SVN_SILENT made messages (.desktop file)
------------------------------------------------------------------------
r892743 | scripty | 2008-12-05 07:39:25 +0000 (Fri, 05 Dec 2008) | 1 line

SVN_SILENT made messages (.desktop file)
------------------------------------------------------------------------
